{
    "page": 1,
    "limit": 10,
    "pages": 3,
    "total": 22,
    "_links": {
        "self": {
            "href": "\/authors\/?page=1&limit=10"
        },
        "first": {
            "href": "\/authors\/?page=1&limit=10"
        },
        "last": {
            "href": "\/authors\/?page=3&limit=10"
        },
        "next": {
            "href": "\/authors\/?page=2&limit=10"
        }
    },
    "_embedded": {
        "items": [
            {
                "id": "@integer@",
                "name": "@string@",
                "nationality": "@wildcard@"
            },
            {
                "id": "@integer@",
                "name": "@string@",
                "nationality": "@wildcard@"
            },
            {
                "id": "@integer@",
                "name": "@string@",
                "nationality": "@wildcard@"
            },
            {
                "id": "@integer@",
                "name": "@string@",
                "nationality": "@wildcard@"
            },
            {
                "id": "@integer@",
                "name": "@string@",
                "nationality": "@wildcard@"
            },
            {
                "id": "@integer@",
                "name": "@string@",
                "nationality": "@wildcard@"
            },
            {
                "id": "@integer@",
                "name": "@string@",
                "nationality": "@wildcard@"
            },
            {
                "id": "@integer@",
                "name": "@string@",
                "nationality": "@wildcard@"
            },
            {
                "id": "@integer@",
                "name": "@string@",
                "nationality": "@wildcard@"
            },
            {
                "id": "@integer@",
                "name": "@string@",
                "nationality": "@wildcard@"
            }
        ]
    }
}
